<?xml version="1.0" standalone="no"?>
<!DOCTYPE svg PUBLIC "-//W3C//DTD SVG 1.1//EN" "http://www.w3.org/Graphics/SVG/1.1/DTD/svg11.dtd">
<svg xmlns="http://www.w3.org/2000/svg">
<metadata>Copyright (C) 2016 by original authors @ fontello.com</metadata>
<defs>
<font id="icons" horiz-adv-x="1000" >
<font-face font-family="icons" font-weight="400" font-stretch="normal" units-per-em="1000" ascent="850" descent="-150" />
<missing-glyph horiz-adv-x="1000" />
<glyph glyph-name="dot-circled" unicode="&#xe800;" d="M571 350q0-59-41-101t-101-42-101 42-42 101 42 101 101 42 101-42 41-101z m-142 304q-83 0-153-41t-110-111-41-152 41-152 110-111 153-41 152 41 110 111 41 152-41 152-110 111-152 41z m428-304q0-117-57-215t-156-156-215-58-216 58-155 156-58 215 58 215 155 156 216 58 215-58 156-156 57-215z" horiz-adv-x="857.1" />

<glyph glyph-name="circle-empty" unicode="&#xe801;" d="M429 654q-83 0-153-41t-110-111-41-152 41-152 110-111 153-41 152 41 110 111 41 152-41 152-110 111-152 41z m428-304q0-117-57-215t-156-156-215-58-216 58-155 156-58 215 58 215 155 156 216 58 215-58 156-156 57-215z" horiz-adv-x="857.1" />

<glyph glyph-name="check" unicode="&#xe802;" d="M786 331v-177q0-67-47-114t-114-47h-464q-67 0-114 47t-47 114v464q0 66 47 113t114 48h464q35 0 65-14 9-4 10-13 2-10-5-16l-27-28q-6-5-13-5-2 0-5 1-13 3-25 3h-464q-37 0-63-26t-27-63v-464q0-37 27-63t63-27h464q37 0 63 27t26 63v141q0 8 5 13l36 35q6 6 13 6 3 0 7-2 11-4 11-16z m129 273l-455-454q-13-14-31-14t-32 14l-240 240q-14 13-14 31t14 32l61 62q14 13 32 13t32-13l147-147 361 361q13 13 31 13t32-13l62-61q13-14 13-32t-13-32z" horiz-adv-x="928.6" />

<glyph glyph-name="check-empty" unicode="&#xe803;" d="M625 707h-464q-37 0-63-26t-27-63v-464q0-37 27-63t63-27h464q37 0 63 27t26 63v464q0 37-26 63t-63 26z m161-89v-464q0-67-47-114t-114-47h-464q-67 0-114 47t-47 114v464q0 66 47 113t114 48h464q66 0 114-48t47-113z" horiz-adv-x="785.7" />

<glyph glyph-name="info-circled" unicode="&#xe804;" d="M571 82v89q0 8-5 13t-12 5h-54v286q0 8-5 13t-13 5h-178q-8 0-13-5t-5-13v-89q0-8 5-13t13-5h53v-179h-53q-8 0-13-5t-5-13v-89q0-8 5-13t13-5h250q7 0 12 5t5 13z m-71 500v89q0 8-5 13t-13 5h-107q-8 0-13-5t-5-13v-89q0-8 5-13t13-5h107q8 0 13 5t5 13z m357-232q0-117-57-215t-156-156-215-58-216 58-155 156-58 215 58 215 155 156 216 58 215-58 156-156 57-215z" horiz-adv-x="857.1" />

<glyph glyph-name="attention-circled" unicode="&#xe805;" d="M429 779q116 0 215-58t156-156 57-215-57-215-156-156-215-58-216 58-155 156-58 215 58 215 155 156 216 58z m71-696v106q0 8-5 13t-12 5h-107q-8 0-13-5t-6-13v-106q0-8 6-13t13-6h107q7 0 12 6t5 13z m-1 192l10 346q0 7-6 10-5 5-13 5h-123q-8 0-13-5-6-3-6-10l10-346q0-6 5-10t14-4h103q8 0 13 4t6 10z" horiz-adv-x="857.1" />

<glyph glyph-name="attention" unicode="&#xe806;" d="M571 83v106q0 8-5 13t-12 5h-108q-7 0-12-5t-5-13v-106q0-8 5-13t12-6h108q7 0 12 6t5 13z m-1 208l10 257q0 6-5 10-7 6-14 6h-122q-7 0-14-6-5-4-5-12l9-255q0-5 6-9t13-3h103q8 0 13 3t6 9z m-7 522l428-786q20-35-1-70-10-17-26-26t-35-10h-858q-18 0-35 10t-26 26q-21 35-1 70l429 786q9 17 26 27t36 10 36-10 27-27z" horiz-adv-x="1000" />

<glyph glyph-name="cancel-circled" unicode="&#xe807;" d="M641 224q0 14-10 25l-101 101 101 101q10 11 10 25 0 15-10 26l-51 50q-10 11-25 11-15 0-25-11l-101-101-101 101q-11 11-26 11-15 0-25-11l-50-50q-11-11-11-26 0-14 11-25l101-101-101-101q-11-11-11-25 0-15 11-26l50-50q10-11 25-11 15 0 26 11l101 101 101-101q10-11 25-11 15 0 25 11l51 50q10 11 10 26z m216 126q0-117-57-215t-156-156-215-58-216 58-155 156-58 215 58 215 155 156 216 58 215-58 156-156 57-215z" horiz-adv-x="857.1" />

<glyph glyph-name="group" unicode="&#xe808;" d="M0 106l0 134q0 26 18 32l171 80q-66 39-68 131 0 56 35 103 37 41 90 43 31 0 63-19-49-125 23-237-12-11-25-19l-114-55q-48-23-52-84l0-143-114 0q-25 0-27 34z m193-59l0 168q0 27 22 37l152 70 57 28q-37 23-60 66t-22 94q0 76 46 130t110 54 109-54 45-130q0-105-78-158l61-30 146-70q24-10 24-37l0-168q-2-37-37-41l-541 0q-14 2-24 14t-10 27z m473 330q68 106 22 231 31 19 66 21 49 0 90-43 35-41 35-103 0-82-65-131l168-80q18-10 18-32l0-134q0-32-27-34l-118 0 0 143q0 57-50 84l-110 53q-15 8-29 25z" horiz-adv-x="1000" />

<glyph glyph-name="globe" unicode="&#xe809;" d="M0 350q0 207 147 354t353 146 354-146 146-354-146-354-354-146-353 146-147 354z m118-39q5-55 27-107 29-73 84-127t125-84q1 17 5 67t8 77q-4 16-22 51t-21 57q0 19 1 29t1 16q-4 1-10 7l-7 8q-8 8-12 10-12 4-34 12t-33 11-29 12-30 18-26 22-24 28q-8-52-3-107z m142 340q17 2 35 0 18-8 38-31t34-32q4-4 12-4 4-9 23-12t24-7q23-14 37-33-24-33-37-39 0-2 2-2 4-8-4-12-6-2-24-6t-23-11-10-24q0-4-4-8 4-27 2-49t-13-23q-6 0-12 2-8 2-19 8t-24 17q0-6 4-14t4-13l6 0q7 2 11-3t0-9l-2-6-2-2 8-4q10-7 19-7t22 2q20 2 31 2t27-9 22-15 22-17 23-18q4-2 22-13t26-19 9-21q-2-70-26-95-7-8-22-19t-23-21-15-23q-6-12-6-27-6-12-16-34t-15-29q99-19 194 12t161 105q51 55 76 121t28 137l-37-21q-24 2-24-8l16-6q4-2 4-4 4-10-4-21-6-12-29-36-2-25-4-33-4-9-10-21l0-14q-2-8-9-22t-9-25q-4-27-23-51-29-27-49-23-8 2-14 10-4 13-13 37t-12 29q-4 10-4 20t2 23 2 20q0 9-7 24t-7 21q-2 5 4 19l-9 3q-8 3-32 3l-12 0q-44 0-56 55-6 33 14 64 1 4 1 9l0 7q10 2 18 19 8 0 36 4t42 5 35-5q8-6 16-10 14-9 23-13l32 21q-10 16-20 26-27 31-57 0l-68 5q-16-9-39-11-2 11-6 19-6 12-7 19t3 11l8 7q8 6 11 17t5 24 4 20q5 14 17 31 6 14 23 22t35 13 39 8 38 4q-37 31-76 53-12 0-32 5t-29 5q-21 2-49-14-21-16-50-16-37 0-75 13t-64 28q-64-21-117-64z" horiz-adv-x="1000" />

<glyph glyph-name="search" unicode="&#xe80a;" d="M0 8l186 186 2 0q-67 105-67 228 0 178 125 303t303 125 303-125 125-303-125-302-303-125q-106 0-197 48l-194-193z m311 415q0-98 70-168t168-69 168 69 70 168-70 168-168 70-168-70-70-168z" horiz-adv-x="977" />

<glyph glyph-name="basket" unicode="&#xe80b;" d="M150 0q0 40 30 70t70 30q42 0 71-30t29-70q0-42-29-71t-71-29q-40 0-70 29t-30 71z m500 0q0 40 30 70t70 30q42 0 71-30t29-70q0-42-29-71t-71-29q-40 0-70 29t-30 71z m-322 236q-36-10-34-23t44-13l562 0 0-76q0-20-20-20l-654 0q-20 0-20 20l0 76-10 46-98 454-98 0 0 80q0 20 20 20l156 0q20 0 20-20l0-86 704 0 0-274q0-22-18-26z" horiz-adv-x="900" />

<glyph glyph-name="left-open" unicode="&#xe80c;" d="M242 626q14 16 39 16t41-16q38-36 0-80l-186-196 186-194q38-44 0-80-16-16-40-16t-40 16l-226 236q-16 16-16 38 0 24 16 40 206 214 226 236z" horiz-adv-x="341" />

<glyph glyph-name="down-open" unicode="&#xe80d;" d="M564 422l-234-224q-18-18-40-18t-40 18l-234 224q-16 16-16 41t16 41q38 38 78 0l196-188 196 188q40 38 78 0 16-16 16-41t-16-41z" horiz-adv-x="580" />

<glyph glyph-name="right-open" unicode="&#xe80e;" d="M98 626l226-236q16-16 16-40 0-22-16-38l-226-236q-16-16-40-16t-40 16q-36 36 0 80l186 194-186 196q-36 44 0 80 16 16 41 16t39-16z" horiz-adv-x="340" />

<glyph glyph-name="up-open" unicode="&#xe80f;" d="M564 280q16-16 16-41t-16-41q-38-38-78 0l-196 188-196-188q-40-38-78 0-16 16-16 41t16 41l234 224q16 16 40 16t40-16z" horiz-adv-x="580" />

<glyph glyph-name="down-open-1" unicode="&#xe810;" d="M0 526l148 148 352-351 352 351 148-148-352-352-148-148-148 148z" horiz-adv-x="1000" />

<glyph glyph-name="left-open-1" unicode="&#xe811;" d="M0 350l148 149 352 351 148-148-351-352 351-352-148-148-352 352z" horiz-adv-x="648" />

<glyph glyph-name="right-open-1" unicode="&#xe812;" d="M0-2l352 352-352 352 148 148 352-351 148-149-148-148-352-352z" horiz-adv-x="648" />

<glyph glyph-name="up-open-1" unicode="&#xe813;" d="M0 174l352 352 148 148 148-148 352-352-148-148-352 351-352-351z" horiz-adv-x="1000" />

<glyph glyph-name="inbox-alt" unicode="&#xe814;" d="M0 6l0 313 273 375 454 0 273-375 0-313-1000 0z m78 313l172 0 125-125 250 0 125 125 172 0-233 312-378 0z" horiz-adv-x="1000" />

<glyph glyph-name="info-circled-1" unicode="&#xe815;" d="M454 810q190 2 326-130t140-322q2-190-131-327t-323-141q-190-2-327 131t-139 323q-4 190 130 327t324 139z m52-152q-42 0-65-24t-23-50q-2-28 15-44t49-16q38 0 61 22t23 54q0 58-60 58z m-120-594q30 0 84 26t106 78l-18 24q-48-36-72-36-14 0-4 38l42 160q26 96-22 96-30 0-89-29t-115-75l16-26q52 34 74 34 12 0 0-34l-36-152q-26-104 34-104z" horiz-adv-x="920" />

<glyph glyph-name="location" unicode="&#xe816;" d="M250 750q104 0 177-73t73-177q0-106-62-243t-126-223l-62-84q-10 12-27 35t-60 89-76 130-60 147-27 149q0 104 73 177t177 73z m0-388q56 0 96 40t40 96-40 95-96 39-95-39-39-95 39-96 95-40z" horiz-adv-x="500" />

<glyph glyph-name="mobile" unicode="&#xe817;" d="M190 794c-18-6-32-21-35-38-1-3-1-142-1-406 0-376 0-402 2-408 3-14 13-25 27-32l8-4 309 0 310 0 7 4c14 7 25 21 28 35 1 7 1 804 0 811-3 14-14 28-28 35l-7 4-308 0c-248 0-309 0-312-1z m557-443l0-347-247 0-247 0 0 347 0 346 247 0 247 0 0-346z m-257-199c-22-4-38-19-45-40-2-5-2-9-2-17 0-9 0-13 2-18 6-18 18-31 37-38 6-2 8-2 19-2 10 0 12 0 18 2 19 7 31 20 37 38 3 9 3 26 0 35-8 24-28 40-53 41-5 0-11 0-13-1z" horiz-adv-x="1000" />

<glyph glyph-name="twitter" unicode="&#xe818;" d="M920 636q-36-54-94-98l0-24q0-130-60-250t-186-203-290-83q-160 0-290 84 14-2 46-2 132 0 234 80-62 2-110 38t-66 94q10-4 34-4 26 0 50 6-66 14-108 66t-42 120l0 2q36-20 84-24-84 58-84 158 0 48 26 94 154-188 390-196-6 18-6 42 0 78 55 133t135 55q82 0 136-58 60 12 120 44-20-66-82-104 56 8 108 30z" horiz-adv-x="920" />

<glyph glyph-name="facebook-squared" unicode="&#xe819;" d="M752 770q44 0 76-31t32-75l0-646q0-44-32-76t-76-32l-162 0 0 310 114 0 0 134-114 0 0 70q0 30 28 30l86 0 0 152-96 0q-74 0-124-54t-50-132l0-66-104 0 0-134 104 0 0-310-326 0q-44 0-76 32t-32 76l0 646q0 44 32 75t76 31l644 0z" horiz-adv-x="860" />

<glyph glyph-name="home" unicode="&#xe81a;" d="M0-150l0 649 453 351 453-351 0-649-312 0 0 391-281 0 0-391-313 0z" horiz-adv-x="906" />

<glyph glyph-name="ok-circled2" unicode="&#xe81b;" d="M0 350q0 207 147 354t353 146 354-146 146-354-146-354-354-146-353 146-147 354z m109 0q0-162 115-276t276-115 276 115 115 276-115 276-276 115-276-115-115-276z m106-51l94 92 93-94 289 291 94-93-291-289-92-94-93 94z" horiz-adv-x="1000" />

<glyph glyph-name="help-circled" unicode="&#xe81c;" d="M0 350q0 207 147 354t353 146 354-146 146-354-146-354-354-146-353 146-147 354z m316 264q-3-49 12-57l57 0q21 47 70 45 33 0 58-32t10-66q-9-23-29-55t-31-56q-20-41-21-90t21-97l70-2q-8 41 9 79t58 89 45 56q25 39 32 62t7 59q0 71-49 121-53 55-145 55-47 0-109-37t-65-74z m94-553q0-35 25-61t59-25 61 25 25 61-25 60-61 24-59-24-25-60z" horiz-adv-x="1000" />

<glyph glyph-name="wrench-circled" unicode="&#xe81d;" d="M0 350q0 207 147 354t353 146 354-146 146-354-146-354-354-146-353 146-147 354z m199-201l100-100 283 284q41-16 89-6t82 44 44 81-6 89l-100-99-72 27-27 72 99 100q-25 10-54 10-69 0-115-49-36-33-45-81t5-89z m77-23q-20 21 1 42 20 20 41 0 20-21-1-42t-41 0z" horiz-adv-x="1000" />

<glyph glyph-name="info-circled-2" unicode="&#xe81e;" d="M0 350q0 207 147 354t353 146 354-146 146-354-146-354-354-146-353 146-147 354z m373 66l8-39 35 8q25 0 25-35l0-244q0-20-13-29-18-12-53-20l8-35q84 8 118 8t118-8l8 35q-35 10-53 20-10 6-11 11-2 4-2 18l0 240q0 49 15 90l-19 23q-32 0-90-13t-94-30z m35 195q0-30 20-50 21-18 56-18t57 19 22 49-22 49-57 18-56-17q-20-20-20-50z" horiz-adv-x="1000" />

<glyph glyph-name="inbox" unicode="&#xe81f;" d="M0-150l0 483 328 0q0-73 51-123t121-49 121 49 51 123l328 0 0-483-1000 0z m279 768l119 0 0 232 204 0 0-232 119 0-221-332z" horiz-adv-x="1000" />

<glyph glyph-name="target" unicode="&#xe820;" d="M0 274l0 152 131 0q21 110 102 191t191 102l0 131 152 0 0-131q110-21 191-102t102-191l131 0 0-152-131 0q-21-109-102-191t-191-102l0-131-152 0 0 131q-110 21-191 102t-102 191l-131 0z m231 0q19-70 71-122t122-71l0 146 152 0 0-146q70 19 122 71t72 122l-147 0 0 152 147 0q-20 71-72 122t-122 72l0-147-152 0 0 147q-70-20-122-72t-71-122l146 0 0-152-146 0z" horiz-adv-x="1000" />

<glyph glyph-name="menu" unicode="&#xe821;" d="M650 400q22 0 36-15t14-35-15-35-35-15l-600 0q-20 0-35 15t-15 35 14 35 36 15l600 0z m-600 100q-20 0-35 15t-15 35 14 35 36 15l600 0q22 0 36-15t14-35-15-35-35-15l-600 0z m600-300q22 0 36-15t14-35-15-35-35-15l-600 0q-20 0-35 15t-15 35 14 35 36 15l600 0z" horiz-adv-x="700" />

<glyph glyph-name="cancel" unicode="&#xe822;" d="M452 194q18-18 18-43t-18-43q-18-16-43-16t-43 16l-132 152-132-152q-18-16-43-16t-43 16q-16 18-16 43t16 43l138 156-138 158q-16 18-16 43t16 43q18 16 43 16t43-16l132-152 132 152q18 16 43 16t43-16q18-18 18-43t-18-43l-138-158z" horiz-adv-x="470" />
</font>
</defs>
</svg>